{
  "activeBrandingSetId" : "0d4e1b5f-f438-4614-a64b-5ba5f2aa5bd5",
  "customCSS" : "",
  "developerName" : "service",
  "id" : "a8b8c334-acc4-42ba-ae71-290516fe5fbd",
  "label" : "Customer Service",
  "layouts" : {
    "Inner" : "96ead02d-e2ab-4e5c-a14f-9becd7e28d00",
    "Login" : "a1fd83ba-3072-4bde-a5cc-55c459a4e4cc",
    "ServiceNotAvailable" : "abac86a3-b66e-41ed-9a0d-9d1f5826ca84"
  },
  "type" : "theme",
  "views" : [ {
    "componentAttributes" : { },
    "componentName" : "salesforceIdentity:loginBody2",
    "id" : "a1fd83ba-3072-4bde-a5cc-55c459a4e4cc",
    "label" : "Login",
    "regions" : [ {
      "id" : "337a3b4c-fa01-487e-a8dd-8b8c58e38590",
      "regionName" : "header",
      "type" : "region"
    }, {
      "id" : "af4e6ff5-c437-4496-ba1d-9601e12bd8bf",
      "regionName" : "content",
      "type" : "region"
    }, {
      "id" : "dc74d6d0-d916-45da-9805-2058eae646d8",
      "regionName" : "footer",
      "type" : "region"
    } ],
    "type" : "view"
  }, {
    "componentAttributes" : {
      "IsDefaultHeaderHidden" : false,
      "IsDefaultNotificationsHidden" : false,
      "fixedPageWidth" : 1140,
      "isPageWidthFixed" : true
    },
    "componentName" : "siteforce:serviceBody",
    "id" : "96ead02d-e2ab-4e5c-a14f-9becd7e28d00",
    "label" : "Default",
    "regions" : [ {
      "id" : "63b22466-39f4-4539-a464-4631307c6498",
      "regionName" : "customHeader",
      "type" : "region"
    }, {
      "components" : [ {
        "componentAttributes" : {
          "contineActionLabel" : "Ask the community",
          "continueLabel" : "Don’t see it?",
          "crossObjectTypeaheadApiNames" : [ {
            "isPublic" : true,
            "name" : "KnowledgeArticleVersion"
          }, {
            "isPublic" : true,
            "name" : "FeedItem"
          }, {
            "isPublic" : false,
            "name" : "Case"
          }, {
            "isPublic" : true,
            "name" : "CollaborationGroup"
          } ],
          "disableCrossObjectRelevance" : false,
          "enableAutocomplete" : true,
          "maxNumberOfResults" : 6,
          "placeholder" : "Search...",
          "questionResultsFirst" : false,
          "showContinueAction" : true,
          "showDetails" : false,
          "showTopics" : true,
          "signInActionLabel" : "Sign in to ask the community"
        },
        "componentName" : "forceCommunity:searchBox",
        "id" : "1f8d5afb-00ac-411a-8329-fbc968ec009c",
        "renditionMap" : { },
        "type" : "component"
      } ],
      "id" : "3ac2d544-d025-4ebe-afcf-598274e41647",
      "regionName" : "search",
      "type" : "region"
    }, {
      "components" : [ {
        "componentAttributes" : {
          "accountManagementLabel" : "Account Management",
          "communityBuilderLabel" : "Experience Builder",
          "communitySetupLabel" : "Salesforce Setup",
          "contactSupportLabel" : "Contact Support",
          "filterName" : "MyCases",
          "homeLabel" : "Home",
          "includeContactSupport" : true,
          "includeMessages" : false,
          "loginLabel" : "Login",
          "logoutLabel" : "Logout",
          "myAccountLabel" : "My Account",
          "showAccountManagement" : true,
          "showUserSettings" : true,
          "userSettingsLabel" : "My Settings",
          "viewProfileLabel" : "My Profile"
        },
        "componentName" : "selfService:userProfileMenu",
        "id" : "334327ed-a072-41cd-af62-83be7fa145a7",
        "renditionMap" : { },
        "type" : "component"
      } ],
      "id" : "2eb589f0-fc5e-461c-bf71-ba2b6005cd7f",
      "regionName" : "profileMenu",
      "type" : "region"
    }, {
      "components" : [ {
        "componentAttributes" : {
          "NavigationMenuEditorRefresh" : "",
          "hideAppLauncher" : false,
          "hideHomeText" : false
        },
        "componentName" : "forceCommunity:globalNavigation",
        "id" : "b753de27-30c0-4833-a62b-00446ca5776a",
        "renditionMap" : { },
        "type" : "component"
      } ],
      "id" : "1a48413b-fa5f-4607-b290-a59a8d5a8da9",
      "regionName" : "navBar",
      "type" : "region"
    }, {
      "id" : "9e92b3fe-d432-44bd-8ee7-89e4c86f4c82",
      "regionName" : "customRegion",
      "type" : "region"
    }, {
      "id" : "3121d00d-b924-42fb-85fc-8d1c90bd926a",
      "regionName" : "footer",
      "type" : "region"
    } ],
    "type" : "view"
  }, {
    "componentAttributes" : {
      "fixedPageWidth" : 1170,
      "headerBgColor" : "rgba(0, 0, 0, 0)",
      "isHeaderPinned" : false,
      "isHeroUnderHeader" : false,
      "isPageWidthFixed" : true,
      "showHeader" : true,
      "showHero" : true
    },
    "componentName" : "siteforce:themeLayoutStarter",
    "id" : "abac86a3-b66e-41ed-9a0d-9d1f5826ca84",
    "label" : "ServiceNotAvailable",
    "regions" : [ {
      "id" : "e229eca1-0f08-4ca7-a4be-62d6a6f4b085",
      "regionName" : "themeHeader",
      "type" : "region"
    }, {
      "id" : "35725fb0-62aa-486a-810e-f4bef7ed5792",
      "regionName" : "themeFooter",
      "type" : "region"
    } ],
    "type" : "view"
  } ]
}