{
  "activeViewId" : "cf37f4d8-343c-4651-8a65-af825d0ae000",
  "appPageId" : "99264cd7-0e6e-46bc-83ad-e5522b665a96",
  "configurationTags" : [ ],
  "id" : "6abe59f1-204e-4d20-b698-af50b77a9b50",
  "label" : "Account Management",
  "routeType" : "account-management",
  "type" : "route",
  "urlPrefix" : "account-management"
}