{
  "activeViewId" : "8199c333-a050-41b5-bc5c-3441fb8b82a8",
  "appPageId" : "99264cd7-0e6e-46bc-83ad-e5522b665a96",
  "configurationTags" : [ ],
  "id" : "e1bae62d-408f-4bec-9a6c-c42644e55fa8",
  "label" : "Case 関連リスト",
  "routeType" : "relatedlist-500",
  "type" : "route",
  "urlPrefix" : "case"
}