{
  "activeViewId" : "56afff6a-cec5-4f61-b3aa-cb7dd55a6a26",
  "appPageId" : "99264cd7-0e6e-46bc-83ad-e5522b665a96",
  "configurationTags" : [ ],
  "id" : "95ec7e68-6f32-41e5-92e0-4cc13cfd189e",
  "label" : "Case Detail",
  "routeType" : "detail-500",
  "type" : "route",
  "urlPrefix" : "case"
}