{
  "activeViewId" : "227b4581-e049-47a2-99f3-aa3ddba6cb8e",
  "appPageId" : "99264cd7-0e6e-46bc-83ad-e5522b665a96",
  "configurationTags" : [ ],
  "id" : "0b8f3def-e438-4297-a6d9-4d5352ea6327",
  "label" : "Dashboard List",
  "routeType" : "list-01Z",
  "type" : "route",
  "urlPrefix" : "dashboard"
}