{
  "activeViewId" : "b0ccde81-e337-47c6-80f5-5d1ba496e9d4",
  "appPageId" : "99264cd7-0e6e-46bc-83ad-e5522b665a96",
  "configurationTags" : [ ],
  "id" : "9e09ce29-4baa-46fc-b5f1-08d7f874d228",
  "label" : "Group 関連リスト",
  "routeType" : "relatedlist-0F9",
  "type" : "route",
  "urlPrefix" : "group"
}