{
  "activeViewId" : "ab0443b8-1d2d-4ffb-96cd-a663b4ff2254",
  "appPageId" : "99264cd7-0e6e-46bc-83ad-e5522b665a96",
  "configurationTags" : [ ],
  "id" : "37ba2e96-98fb-42d9-847f-72f91df0679b",
  "label" : "Record List",
  "pageAccess" : "UseParent",
  "routeType" : "list",
  "type" : "route",
  "urlPrefix" : "recordlist"
}