{
  "activeViewId" : "94050d2d-bee5-446b-9917-bf31d74549dc",
  "appPageId" : "62aa6dbf-68ae-4780-8705-5546306c33eb",
  "configurationTags" : [ ],
  "id" : "9b636489-de0c-4584-9130-46a1aa878431",
  "label" : "Register",
  "routeType" : "self-register",
  "type" : "route",
  "urlPrefix" : "SelfRegister"
}