{
  "activeViewId" : "747fe222-cdb6-4cac-b30f-002650e99187",
  "appPageId" : "99264cd7-0e6e-46bc-83ad-e5522b665a96",
  "configurationTags" : [ ],
  "id" : "1da33a9d-f46b-4696-8ac3-ae8c367d55ea",
  "label" : "Stream 関連リスト",
  "routeType" : "relatedlist-0Fq",
  "type" : "route",
  "urlPrefix" : "streams"
}