{
  "activeViewId" : "eb009f92-738b-45cd-b543-7e853676f1b9",
  "appPageId" : "99264cd7-0e6e-46bc-83ad-e5522b665a96",
  "configurationTags" : [ ],
  "id" : "68602f33-ea13-4b83-a24b-b9cee629841a",
  "label" : "User リスト",
  "routeType" : "list-005",
  "type" : "route",
  "urlPrefix" : "profile"
}