{
  "packageDirectories" : [ {
    "path" : "force-app",
    "default" : true,
    "package" : "Test Package",
    "versionName" : "ver 0.1",
    "versionNumber" : "0.1.0.NEXT"
  }, {
    "path" : "force-app",
    "default" : false,
    "package" : "testHub",
    "scopeProfiles" : "false",
    "versionName" : "ver 0.1",
    "versionNumber" : "0.1.0.NEXT"
  } ],
  "namespace" : "",
  "sfdcLoginUrl" : "https://login.salesforce.com",
  "sourceApiVersion" : "55.0",
  "packageAliases" : {
    "Test Package" : "0Ho5Y0000010waPSAQ",
    "Test Package@1.1.1.1" : "04t5Y000001nVcGQAU",
    "testHub" : "0Ho5Y000000PAzJSAW"
  }
}