{
  "appPageId" : "99264cd7-0e6e-46bc-83ad-e5522b665a96",
  "componentName" : "siteforce:sldsOneColLayout",
  "dataProviders" : [ ],
  "id" : "8199c333-a050-41b5-bc5c-3441fb8b82a8",
  "label" : "Case 関連リスト",
  "regions" : [ {
    "id" : "c3f727e6-2511-4049-a485-cf929303152c",
    "regionName" : "header",
    "type" : "region"
  }, {
    "components" : [ {
      "componentAttributes" : {
        "customTitle" : "",
        "parentRecordId" : "{!recordId}",
        "relatedListName" : "{!relationshipApiName}",
        "showBreadCrumbs" : true,
        "showCustomTitle" : false,
        "showManualRefreshButton" : true,
        "showRowNumbers" : true
      },
      "componentName" : "forceCommunity:relatedList",
      "id" : "631739d7-a033-40b6-aa47-b68dc1aa0334",
      "renderPriority" : "NEUTRAL",
      "renditionMap" : { },
      "type" : "component"
    } ],
    "id" : "116e2000-7835-4f8f-a8b5-91d4d962273e",
    "regionName" : "content",
    "type" : "region"
  }, {
    "id" : "f905d7be-ba46-487e-a885-e722dba7d078",
    "regionName" : "footer",
    "type" : "region"
  } ],
  "themeLayoutType" : "Inner",
  "type" : "view",
  "viewType" : "relatedlist-500"
}