{
  "appPageId" : "99264cd7-0e6e-46bc-83ad-e5522b665a96",
  "componentName" : "siteforce:sldsOneColLayout",
  "dataProviders" : [ ],
  "id" : "66d92cf7-0739-4a9b-95a3-b713122c6a3b",
  "label" : "Flow",
  "regions" : [ {
    "id" : "53f3c860-299e-4700-bb92-a2e8b28c0b20",
    "regionName" : "header",
    "type" : "region"
  }, {
    "components" : [ {
      "componentAttributes" : {
        "flowArguments" : "",
        "flowName" : "{!flowName}"
      },
      "componentName" : "forceCommunity:flowCommunity",
      "id" : "35584a3c-6466-4975-984b-df89eb17d32b",
      "renderPriority" : "NEUTRAL",
      "renditionMap" : { },
      "type" : "component"
    } ],
    "id" : "d1fcbe65-1dee-4f81-b407-eb8ad3e37551",
    "regionName" : "content",
    "type" : "region"
  }, {
    "id" : "3fd62867-e0de-4735-8f49-64d6abdfbdd2",
    "regionName" : "footer",
    "type" : "region"
  } ],
  "themeLayoutType" : "Inner",
  "type" : "view",
  "viewType" : "flow"
}