{
  "appPageId" : "99264cd7-0e6e-46bc-83ad-e5522b665a96",
  "componentName" : "siteforce:sldsOneColLayout",
  "dataProviders" : [ ],
  "id" : "c1b72413-f7f8-4b93-a04c-c1f114572331",
  "label" : "Group Detail",
  "regions" : [ {
    "id" : "15f41b3c-d5df-4598-84f9-7c5545b8402e",
    "regionName" : "header",
    "type" : "region"
  }, {
    "components" : [ {
      "componentAttributes" : {
        "detailsTabLabel" : "Details",
        "engagementManagersOnly" : false,
        "engagementTabLabel" : "Engagement",
        "feedTabLabel" : "Feed",
        "recordId" : "{!recordId}",
        "relatedTabLabel" : "Related"
      },
      "componentName" : "forceCommunity:groupRecordHomeTabs",
      "id" : "2a021135-4355-4b19-9af9-c8df3a58fecf",
      "renderPriority" : "NEUTRAL",
      "renditionMap" : { },
      "type" : "component"
    } ],
    "id" : "d09803fe-2e32-4b17-a1f0-33115d7247d5",
    "regionName" : "content",
    "type" : "region"
  }, {
    "id" : "72238f12-83b6-43ed-b8c5-5969d32f99cf",
    "regionName" : "footer",
    "type" : "region"
  }, {
    "components" : [ {
      "componentAttributes" : {
        "customHeadTags" : "",
        "description" : "",
        "title" : "{!Record._Object}: {!Record._Title}"
      },
      "componentName" : "forceCommunity:seoAssistant",
      "id" : "1895e87d-9112-46f0-b0b7-a874c0bdd96d",
      "renditionMap" : { },
      "type" : "component"
    } ],
    "id" : "67be4b43-e9f3-4483-86bc-18a620d13dd0",
    "regionName" : "sfdcHiddenRegion",
    "type" : "region"
  } ],
  "themeLayoutType" : "Inner",
  "type" : "view",
  "viewType" : "detail-0F9"
}