{
  "appPageId" : "99264cd7-0e6e-46bc-83ad-e5522b665a96",
  "componentName" : "siteforce:sldsOneColLayout",
  "dataProviders" : [ ],
  "id" : "9a3ff749-f956-4a78-8803-5bda028f0345",
  "label" : "Group List",
  "regions" : [ {
    "id" : "ae33cf6d-18d9-4694-ae7e-5f1c1d69c709",
    "regionName" : "header",
    "type" : "region"
  }, {
    "components" : [ {
      "componentAttributes" : { },
      "componentName" : "forceCommunity:groupObjectHome",
      "id" : "e2bf7eca-7268-4b10-90d4-29f550bd56ab",
      "renderPriority" : "NEUTRAL",
      "renditionMap" : { },
      "type" : "component"
    } ],
    "id" : "29083e07-cf7a-4ebe-937f-301800cf970e",
    "regionName" : "content",
    "type" : "region"
  }, {
    "id" : "f67c56ac-6c63-4269-92c2-35f0f4cfdb52",
    "regionName" : "footer",
    "type" : "region"
  } ],
  "themeLayoutType" : "Inner",
  "type" : "view",
  "viewType" : "list-0F9"
}