{
  "appPageId" : "99264cd7-0e6e-46bc-83ad-e5522b665a96",
  "componentName" : "siteforce:sldsOneColLayout",
  "dataProviders" : [ ],
  "id" : "5598edd7-2be1-4070-a920-e7d2522bbe29",
  "label" : "Messages",
  "regions" : [ {
    "components" : [ {
      "componentAttributes" : { },
      "componentName" : "forceChatter:messages",
      "id" : "26a0f523-e09e-46a2-a317-555b945522cf",
      "renderPriority" : "NEUTRAL",
      "renditionMap" : { },
      "type" : "component"
    } ],
    "id" : "eb63afef-772d-4dcb-a75b-79d8d9c59468",
    "regionName" : "content",
    "type" : "region"
  } ],
  "themeLayoutType" : "Inner",
  "type" : "view",
  "viewType" : "messages"
}