{
  "appPageId" : "99264cd7-0e6e-46bc-83ad-e5522b665a96",
  "componentName" : "siteforce:sldsOneColLayout",
  "dataProviders" : [ ],
  "id" : "32d3fce7-6ec6-4710-9ed6-7f07b3e54acb",
  "label" : "Stream Detail",
  "regions" : [ {
    "id" : "923c671d-b1d5-4c40-ad87-177afe2c1cd4",
    "regionName" : "header",
    "type" : "region"
  }, {
    "components" : [ {
      "componentAttributes" : {
        "id" : "{!recordId}"
      },
      "componentName" : "forceCommunity:streamDetail",
      "id" : "1b059c7b-7e3d-4273-a400-4cd47e9d8262",
      "renderPriority" : "NEUTRAL",
      "renditionMap" : { },
      "type" : "component"
    } ],
    "id" : "e87d0aa9-3964-4bf9-a6f7-02da8722285c",
    "regionName" : "content",
    "type" : "region"
  }, {
    "id" : "a62bc974-6eaa-4163-b2d3-3db6fef12e53",
    "regionName" : "footer",
    "type" : "region"
  } ],
  "themeLayoutType" : "Inner",
  "type" : "view",
  "viewType" : "detail-0Fq"
}