{
  "activeViewId" : "4d97a7c0-8650-4331-abd7-cf9965586a12",
  "appPageId" : "62aa6dbf-68ae-4780-8705-5546306c33eb",
  "configurationTags" : [ ],
  "id" : "d04b163b-7a1d-4af9-9484-fc634c903284",
  "label" : "Check Password",
  "routeType" : "check-password",
  "type" : "route",
  "urlPrefix" : "CheckPasswordResetEmail"
}