{
  "activeViewId" : "b156764b-90b8-4218-a354-69a18d90b79a",
  "appPageId" : "99264cd7-0e6e-46bc-83ad-e5522b665a96",
  "configurationTags" : [ ],
  "id" : "92dca265-712b-4f30-b20a-44391d4f2035",
  "label" : "File 関連リスト",
  "routeType" : "relatedlist-069",
  "type" : "route",
  "urlPrefix" : "contentdocument"
}