{
  "activeViewId" : "e8a85ce3-6bce-4c9e-b710-4d2853cddd83",
  "appPageId" : "99264cd7-0e6e-46bc-83ad-e5522b665a96",
  "configurationTags" : [ ],
  "id" : "ef242648-dab8-4884-8d0a-aa053cab61fc",
  "label" : "File Detail",
  "routeType" : "detail-069",
  "type" : "route",
  "urlPrefix" : "contentdocument"
}