{
  "activeViewId" : "9a3ff749-f956-4a78-8803-5bda028f0345",
  "appPageId" : "99264cd7-0e6e-46bc-83ad-e5522b665a96",
  "configurationTags" : [ ],
  "id" : "8bb83449-ec5b-49ea-a4f2-8055e437ac5c",
  "label" : "Group List",
  "routeType" : "list-0F9",
  "type" : "route",
  "urlPrefix" : "group"
}