{
  "activeViewId" : "c1b72413-f7f8-4b93-a04c-c1f114572331",
  "appPageId" : "99264cd7-0e6e-46bc-83ad-e5522b665a96",
  "configurationTags" : [ ],
  "id" : "e07fa155-7cca-4cab-8211-067c9d5235dc",
  "label" : "Group Detail",
  "routeType" : "detail-0F9",
  "type" : "route",
  "urlPrefix" : "group"
}