{
  "activeViewId" : "5598edd7-2be1-4070-a920-e7d2522bbe29",
  "appPageId" : "99264cd7-0e6e-46bc-83ad-e5522b665a96",
  "configurationTags" : [ ],
  "id" : "1e59ed72-5a7e-4074-a249-587b2c9eaa23",
  "label" : "Messages",
  "routeType" : "messages",
  "type" : "route",
  "urlPrefix" : "messages"
}