{
  "activeViewId" : "d48b39d6-2dae-493c-9bff-f2855e8bba69",
  "appPageId" : "99264cd7-0e6e-46bc-83ad-e5522b665a96",
  "configurationTags" : [ ],
  "id" : "f6e37d9a-51ba-4f18-b573-7bf024bb0c59",
  "label" : "My Account",
  "routeType" : "my-account",
  "type" : "route",
  "urlPrefix" : "comm-my-account"
}