{
  "activeViewId" : "9ad7016b-9859-4ce3-a128-5349a1a7153e",
  "appPageId" : "99264cd7-0e6e-46bc-83ad-e5522b665a96",
  "configurationTags" : [ ],
  "id" : "07b47aa0-defa-4473-b081-c3d97420578a",
  "label" : "Question Detail",
  "routeType" : "feeditem",
  "type" : "route",
  "urlPrefix" : "question"
}