{
  "activeViewId" : "8133e6ea-0a1f-4ae8-92de-78dd968a93a8",
  "appPageId" : "99264cd7-0e6e-46bc-83ad-e5522b665a96",
  "configurationTags" : [ ],
  "id" : "7949a0c2-ab7f-425e-af96-4add6f766cec",
  "label" : "Report 関連リスト",
  "routeType" : "relatedlist-00O",
  "type" : "route",
  "urlPrefix" : "report"
}