{
  "activeViewId" : "37c4bdb5-a9ae-41d4-aed9-bf0c257881f4",
  "appPageId" : "99264cd7-0e6e-46bc-83ad-e5522b665a96",
  "configurationTags" : [ ],
  "id" : "89e5f95f-21a5-465a-8b55-4adb2ad3ae20",
  "label" : "Search",
  "pageAccess" : "UseParent",
  "routeType" : "global-search",
  "type" : "route",
  "urlPrefix" : "global-search"
}