{
  "activeViewId" : "3c4d6896-5ba1-4b40-b2c8-c548d2c1484c",
  "appPageId" : "99264cd7-0e6e-46bc-83ad-e5522b665a96",
  "configurationTags" : [ "allow-in-static-site" ],
  "id" : "a323235a-34e1-417f-a037-c2365612f932",
  "label" : "Service Not Available",
  "routeType" : "service-not-available",
  "type" : "route",
  "urlPrefix" : "service-not-available"
}