{
  "activeViewId" : "43a0f4c8-9ab2-4bea-950c-b2659b17a009",
  "appPageId" : "99264cd7-0e6e-46bc-83ad-e5522b665a96",
  "configurationTags" : [ ],
  "id" : "15efdc63-f8d5-4599-b1a4-e6ad6c532de3",
  "label" : "Topic Detail",
  "routeType" : "topic",
  "type" : "route",
  "urlPrefix" : "topic"
}