{
  "activeViewId" : "dcab1af1-1836-4f27-b3c0-818da3c3b08f",
  "appPageId" : "99264cd7-0e6e-46bc-83ad-e5522b665a96",
  "configurationTags" : [ ],
  "id" : "5af832a1-d505-476d-86c8-2bd3ae09cf1f",
  "label" : "Topic Catalog",
  "pageAccess" : "UseParent",
  "routeType" : "topic-catalog",
  "type" : "route",
  "urlPrefix" : "topiccatalog"
}