{
  "activeViewId" : "ed264ed7-440a-455a-b076-a8088b11681c",
  "appPageId" : "99264cd7-0e6e-46bc-83ad-e5522b665a96",
  "configurationTags" : [ ],
  "id" : "395ccaa7-4d36-4aff-aa9c-201e645e4d5f",
  "label" : "User Settings",
  "routeType" : "usersettings",
  "type" : "route",
  "urlPrefix" : "settings"
}