{
  "activeViewId" : "1174493e-c1c5-43af-8446-1aac30b01cd7",
  "appPageId" : "99264cd7-0e6e-46bc-83ad-e5522b665a96",
  "configurationTags" : [ ],
  "id" : "ddf6369c-300d-4ac3-91eb-4abab440c43b",
  "label" : "User 関連リスト",
  "routeType" : "relatedlist-005",
  "type" : "route",
  "urlPrefix" : "profile"
}