{
  "appPageId" : "99264cd7-0e6e-46bc-83ad-e5522b665a96",
  "componentName" : "siteforce:sldsOneColLayout",
  "dataProviders" : [ ],
  "id" : "52111096-6232-4a9c-8e44-4402708b7ffe",
  "label" : "Dashboard 関連リスト",
  "regions" : [ {
    "id" : "8ef69bd0-37a6-400c-b0ed-7ccca304f8de",
    "regionName" : "header",
    "type" : "region"
  }, {
    "components" : [ {
      "componentAttributes" : {
        "customTitle" : "",
        "parentRecordId" : "{!recordId}",
        "relatedListName" : "{!relationshipApiName}",
        "showBreadCrumbs" : true,
        "showCustomTitle" : false,
        "showManualRefreshButton" : true,
        "showRowNumbers" : true
      },
      "componentName" : "forceCommunity:relatedList",
      "id" : "8f067840-ece1-45a0-af5f-b55321936df2",
      "renderPriority" : "NEUTRAL",
      "renditionMap" : { },
      "type" : "component"
    } ],
    "id" : "afd21fc0-9327-482c-bc29-4f7151416af3",
    "regionName" : "content",
    "type" : "region"
  }, {
    "id" : "2a3efb0c-b072-479b-8ad5-4b791185fa37",
    "regionName" : "footer",
    "type" : "region"
  } ],
  "themeLayoutType" : "Inner",
  "type" : "view",
  "viewType" : "relatedlist-01Z"
}