{
  "appPageId" : "62aa6dbf-68ae-4780-8705-5546306c33eb",
  "componentName" : "siteforce:sldsOneColLayout",
  "dataProviders" : [ ],
  "id" : "4366257e-6dfd-49fa-80ad-ac27ab2940d9",
  "label" : "Login Error",
  "regions" : [ {
    "id" : "6d08db6c-6330-4381-adf5-11fc90a1a45d",
    "regionName" : "header",
    "type" : "region"
  }, {
    "components" : [ {
      "componentAttributes" : {
        "richTextValue" : "<div style=\"text-align: center;\">Invalid Page</div>"
      },
      "componentName" : "forceCommunity:richTextInline",
      "id" : "55151649-9b9c-403b-a1d3-d74e880aadf6",
      "renderPriority" : "NEUTRAL",
      "renditionMap" : { },
      "type" : "component"
    } ],
    "id" : "f0a60099-0a90-426e-b89d-95c9e15d7687",
    "regionName" : "content",
    "type" : "region"
  }, {
    "id" : "4aefba61-eaac-484f-bdd0-698d0baf46cd",
    "regionName" : "footer",
    "type" : "region"
  }, {
    "components" : [ {
      "componentAttributes" : {
        "customHeadTags" : "",
        "description" : "",
        "title" : "Login Error"
      },
      "componentName" : "forceCommunity:seoAssistant",
      "id" : "a69efc3d-4e03-4a9f-a483-2369dd5373d4",
      "renditionMap" : { },
      "type" : "component"
    } ],
    "id" : "d8bf1af4-6dee-4e77-a4fb-bee4439bb442",
    "regionName" : "sfdcHiddenRegion",
    "type" : "region"
  } ],
  "themeLayoutType" : "Login",
  "type" : "view",
  "viewType" : "login-error"
}