{
  "appPageId" : "99264cd7-0e6e-46bc-83ad-e5522b665a96",
  "componentName" : "siteforce:sldsOneColLayout",
  "dataProviders" : [ ],
  "id" : "8133e6ea-0a1f-4ae8-92de-78dd968a93a8",
  "label" : "Report 関連リスト",
  "regions" : [ {
    "id" : "6cb1d687-f346-4729-91e2-b2c963b15f76",
    "regionName" : "header",
    "type" : "region"
  }, {
    "components" : [ {
      "componentAttributes" : {
        "customTitle" : "",
        "parentRecordId" : "{!recordId}",
        "relatedListName" : "{!relationshipApiName}",
        "showBreadCrumbs" : true,
        "showCustomTitle" : false,
        "showManualRefreshButton" : true,
        "showRowNumbers" : true
      },
      "componentName" : "forceCommunity:relatedList",
      "id" : "a52acc17-1dbf-4e35-8090-d64a2bb68083",
      "renderPriority" : "NEUTRAL",
      "renditionMap" : { },
      "type" : "component"
    } ],
    "id" : "de0a349c-83f7-4535-8420-24b6b3ea1dbc",
    "regionName" : "content",
    "type" : "region"
  }, {
    "id" : "6ff1880e-9f9c-4841-8e5d-61116e158fe7",
    "regionName" : "footer",
    "type" : "region"
  } ],
  "themeLayoutType" : "Inner",
  "type" : "view",
  "viewType" : "relatedlist-00O"
}