{
  "appPageId" : "99264cd7-0e6e-46bc-83ad-e5522b665a96",
  "componentName" : "siteforce:sldsOneColLayout",
  "dataProviders" : [ ],
  "id" : "87f80b2b-394a-46ac-a6ca-0d2011a1a00c",
  "label" : "Report Builder",
  "regions" : [ {
    "id" : "695b2b66-234f-4e61-9709-6986fe842bd1",
    "regionName" : "header",
    "type" : "region"
  }, {
    "components" : [ {
      "componentAttributes" : {
        "recordId" : "{!recordId}"
      },
      "componentName" : "forceCommunity:reportBuilder",
      "id" : "f6c3f80e-78a4-4be1-9d63-75b0fa5e3ebd",
      "renderPriority" : "NEUTRAL",
      "renditionMap" : { },
      "type" : "component"
    } ],
    "id" : "504c2021-af73-4185-b95b-613aa2ee6acc",
    "regionName" : "content",
    "type" : "region"
  }, {
    "id" : "55562584-7df4-4294-9805-5e6ae5368ca2",
    "regionName" : "footer",
    "type" : "region"
  } ],
  "themeLayoutType" : "Inner",
  "type" : "view",
  "viewType" : "createreport"
}