{
  "appPageId" : "99264cd7-0e6e-46bc-83ad-e5522b665a96",
  "componentName" : "siteforce:sldsOneColLayout",
  "dataProviders" : [ ],
  "id" : "37c4bdb5-a9ae-41d4-aed9-bf0c257881f4",
  "label" : "Search",
  "regions" : [ {
    "id" : "29cf3b79-31df-411a-98ea-f6ae0792d3c0",
    "regionName" : "header",
    "type" : "region"
  }, {
    "components" : [ {
      "componentAttributes" : {
        "scopes" : [ {
          "isPublic" : true,
          "name" : "FeedPost"
        }, {
          "isPublic" : true,
          "name" : "KnowledgeArticleVersion"
        }, {
          "isPublic" : false,
          "name" : "Case"
        }, {
          "isPublic" : true,
          "name" : "CollaborationGroup"
        } ],
        "searchResultFiltering" : true,
        "searchTerm" : "{!term}",
        "showTopResults" : true
      },
      "componentName" : "forceCommunity:search",
      "id" : "752bc9d9-a805-4591-bbae-052efc69717a",
      "renderPriority" : "NEUTRAL",
      "renditionMap" : { },
      "type" : "component"
    } ],
    "id" : "4eff4b78-751c-4a2d-af23-51dfd91a0324",
    "regionName" : "content",
    "type" : "region"
  }, {
    "id" : "d8456669-3e13-4b71-b7ad-0c569fb0a37f",
    "regionName" : "footer",
    "type" : "region"
  } ],
  "themeLayoutType" : "Inner",
  "type" : "view",
  "viewType" : "global-search"
}