{
  "appPageId" : "99264cd7-0e6e-46bc-83ad-e5522b665a96",
  "componentName" : "siteforce:sldsOneColLayout",
  "dataProviders" : [ ],
  "id" : "a65290c3-33c9-4bef-85dc-62e9b689227c",
  "label" : "Stream List",
  "regions" : [ {
    "components" : [ {
      "componentAttributes" : { },
      "componentName" : "forceCommunity:streamList",
      "id" : "b13b3592-5076-4cf1-af0d-b8cf07b597b0",
      "renderPriority" : "NEUTRAL",
      "renditionMap" : { },
      "type" : "component"
    } ],
    "id" : "b897752d-8102-435a-acab-d6c25a717e3f",
    "regionName" : "content",
    "type" : "region"
  } ],
  "themeLayoutType" : "Inner",
  "type" : "view",
  "viewType" : "list-0Fq"
}