{
  "appPageId" : "99264cd7-0e6e-46bc-83ad-e5522b665a96",
  "componentName" : "siteforce:sldsOneColLayout",
  "dataProviders" : [ ],
  "id" : "eb009f92-738b-45cd-b543-7e853676f1b9",
  "label" : "User リスト",
  "regions" : [ {
    "id" : "ca4dc7e7-7aa0-48d7-bd59-1e5246eb9f2e",
    "regionName" : "header",
    "type" : "region"
  }, {
    "id" : "5a2e2cc9-4be3-45da-8f49-36ada99ce936",
    "regionName" : "content",
    "type" : "region"
  }, {
    "id" : "1656dbfe-5f8d-47a2-aa82-151c7e8f08fa",
    "regionName" : "footer",
    "type" : "region"
  } ],
  "themeLayoutType" : "Inner",
  "type" : "view",
  "viewType" : "list-005"
}